{"paginator":{"items":52,"lastPage":3,"page":1},"rateCount":{"picNum":19,"shop":0,"total":52,"used":5},"rateDanceInfo":{"currentMilles":1498217975000,"intervalMilles":73988504000,"showChooseTopic":false,"storeType":4},"rateList":[{"aliMallSeller":false,"anony":true,"appendComment":"","attributes":"","attributesMap":"","aucNumId":"","auctionPicUrl":"","auctionPrice":"","auctionSku":"颜色分类:黑色","auctionTitle":"","buyCount":0,"carServiceLocation":"","cmsSource":"天猫","displayRatePic":"","displayRateSum":0,"displayUserLink":"","displayUserNick":"z***n","displayUserNumId":"","displayUserRateLink":"","dsr":0.0,"fromMall":true,"fromMemory":0,"gmtCreateTime":1498184950000,"id":314831065471,"pics":["//img.alicdn.com/bao/uploaded/i4/1528906071153304078/TB2SALPyrBmpuFjSZFuXXaG_XXa_!!0-rate.jpg","//img.alicdn.com/bao/uploaded/i4/1528906071310620122/TB2Lf8Iuw0kpuFjSspdXXX4YXXa_!!0-rate.jpg"],"picsSmall":"","position":"","rateContent":"好","rateDate":"2017-06-23 10:29:10","reply":"","sellerId":1669237499,"serviceRateContent":"","structuredRateList":[],"tamllSweetLevel":4,"tmallSweetPic":"tmall-grade-t4-18.png","tradeEndTime":1498184873000,"tradeId":"","useful":true,"userIdEncryption":"","userInfo":"","userVipLevel":0,"userVipPic":""},{"aliMallSeller":false,"anony":true,"appendComment":"","attributes":"","attributesMap":"","aucNumId":"","auctionPicUrl":"","auctionPrice":"","auctionSku":"颜色分类:深蓝色F0216","auctionTitle":"","buyCount":0,"carServiceLocation":"","cmsSource":"天猫","displayRatePic":"","displayRateSum":0,"displayUserLink":"","displayUserNick":"x***m","displayUserNumId":"","displayUserRateLink":"","dsr":0.0,"fromMall":true,"fromMemory":0,"gmtCreateTime":1498177945000,"id":314888431529,"pics":"","picsSmall":"","position":"","rateContent":"手感不错，细节很重要","rateDate":"2017-06-23 08:32:25","reply":"","sellerId":1669237499,"serviceRateContent":"","structuredRateList":[],"tamllSweetLevel":4,"tmallSweetPic":"tmall-grade-t4-18.png","tradeEndTime":1498177841000,"tradeId":"","useful":true,"userIdEncryption":"","userInfo":"","userVipLevel":0,"userVipPic":""},{"aliMallSeller":false,"anony":true,"appendComment":"","attributes":"","attributesMap":"","aucNumId":"","auctionPicUrl":"","auctionPrice":"","auctionSku":"颜色分类:深蓝色F0216","auctionTitle":"","buyCount":0,"carServiceLocation":"","cmsSource":"天猫","displayRatePic":"","displayRateSum":0,"displayUserLink":"","displayUserNick":"j***半","displayUserNumId":"","displayUserRateLink":"","dsr":0.0,"fromMall":true,"fromMemory":0,"gmtCreateTime":1498137923000,"id":314836923996,"pics":"","picsSmall":"","position":"","rateContent":"很漂亮","rateDate":"2017-06-22 21:25:23","reply":"","sellerId":1669237499,"serviceRateContent":"","structuredRateList":[],"tamllSweetLevel":3,"tmallSweetPic":"tmall-grade-t3-18.png","tradeEndTime":1498027777000,"tradeId":"","useful":true,"userIdEncryption":"","userInfo":"","userVipLevel":0,"userVipPic":""},{"aliMallSeller":false,"anony":false,"appendComment":"","attributes":"","attributesMap":"","aucNumId":"","auctionPicUrl":"","auctionPrice":"","auctionSku":"颜色分类:黑色","auctionTitle":"","buyCount":0,"carServiceLocation":"","cmsSource":"天猫","displayRatePic":"","displayRateSum":0,"displayUserLink":"","displayUserNick":"l***n","displayUserNumId":"","displayUserRateLink":"","dsr":0.0,"fromMall":true,"fromMemory":0,"gmtCreateTime":1498124114000,"id":314933322808,"pics":["//img.alicdn.com/bao/uploaded/i4/1343806070962399809/TB2PmdmurtlpuFjSspoXXbcDpXa_!!0-rate.jpg","//img.alicdn.com/bao/uploaded/i4/1343806070969918913/TB2T3ibdTAKh1JjSZFDXXbKlFXa_!!0-rate.jpg"],"picsSmall":"","position":"","rateContent":"手感摸起来应该是正品，懒得找人验了，相信天猫聚划算的东西应该没问题，卖家也很好！","rateDate":"2017-06-22 17:35:14","reply":"","sellerId":1669237499,"serviceRateContent":"","structuredRateList":[],"tamllSweetLevel":4,"tmallSweetPic":"tmall-grade-t4-18.png","tradeEndTime":1498123956000,"tradeId":"","useful":true,"userIdEncryption":"","userInfo":"","userVipLevel":0,"userVipPic":""},{"aliMallSeller":false,"anony":false,"appendComment":"","attributes":"","attributesMap":"","aucNumId":"","auctionPicUrl":"","auctionPrice":"","auctionSku":"颜色分类:新款黑色","auctionTitle":"","buyCount":0,"carServiceLocation":"","cmsSource":"天猫","displayRatePic":"","displayRateSum":0,"displayUserLink":"","displayUserNick":"h***4","displayUserNumId":"","displayUserRateLink":"","dsr":0.0,"fromMall":true,"fromMemory":0,"gmtCreateTime":1498054403000,"id":314798907592,"pics":"","picsSmall":"","position":"","rateContent":"收到货了。卖家还送个小赠品，挺好的。对比了下往上的教程。应该是真的。","rateDate":"2017-06-21 22:13:23","reply":"","sellerId":1669237499,"serviceRateContent":"","structuredRateList":[],"tamllSweetLevel":3,"tmallSweetPic":"tmall-grade-t3-18.png","tradeEndTime":1498054347000,"tradeId":"","useful":true,"userIdEncryption":"","userInfo":"","userVipLevel":0,"userVipPic":""},{"aliMallSeller":false,"anony":true,"appendComment":"","attributes":"","attributesMap":"","aucNumId":"","auctionPicUrl":"","auctionPrice":"","auctionSku":"颜色分类:黑色","auctionTitle":"","buyCount":0,"carServiceLocation":"","cmsSource":"天猫","displayRatePic":"","displayRateSum":0,"displayUserLink":"","displayUserNick":"我***拉","displayUserNumId":"","displayUserRateLink":"","dsr":0.0,"fromMall":true,"fromMemory":0,"gmtCreateTime":1498050921000,"id":314689580218,"pics":"","picsSmall":"","position":"","rateContent":"挺好的，用着很大气，很好看，应该是正品，还没验过","rateDate":"2017-06-21 21:15:21","reply":"","sellerId":1669237499,"serviceRateContent":"","structuredRateList":[],"tamllSweetLevel":3,"tmallSweetPic":"tmall-grade-t3-18.png","tradeEndTime":1498001673000,"tradeId":"","useful":true,"userIdEncryption":"","userInfo":"","userVipLevel":0,"userVipPic":""},{"aliMallSeller":false,"anony":true,"appendComment":"","attributes":"","attributesMap":"","aucNumId":"","auctionPicUrl":"","auctionPrice":"","auctionSku":"颜色分类:黑色","auctionTitle":"","buyCount":0,"carServiceLocation":"","cmsSource":"天猫","displayRatePic":"","displayRateSum":0,"displayUserLink":"","displayUserNick":"t***4","displayUserNumId":"","displayUserRateLink":"","dsr":0.0,"fromMall":true,"fromMemory":0,"gmtCreateTime":1498048548000,"id":314908390908,"pics":["//img.alicdn.com/bao/uploaded/i4/1620106070054026444/TB2CQrTydRopuFjSZFtXXcanpXa_!!0-rate.jpg"],"picsSmall":"","position":"","rateContent":"用用看吧，反正第一次买！","rateDate":"2017-06-21 20:35:48","reply":"","sellerId":1669237499,"serviceRateContent":"","structuredRateList":[],"tamllSweetLevel":3,"tmallSweetPic":"tmall-grade-t3-18.png","tradeEndTime":1498048500000,"tradeId":"","useful":true,"userIdEncryption":"","userInfo":"","userVipLevel":0,"userVipPic":""},{"aliMallSeller":false,"anony":false,"appendComment":"","attributes":"","attributesMap":"","aucNumId":"","auctionPicUrl":"","auctionPrice":"","auctionSku":"颜色分类:黑色","auctionTitle":"","buyCount":0,"carServiceLocation":"","cmsSource":"天猫","displayRatePic":"","displayRateSum":0,"displayUserLink":"","displayUserNick":"n***y","displayUserNumId":"","displayUserRateLink":"","dsr":0.0,"fromMall":true,"fromMemory":0,"gmtCreateTime":1498039458000,"id":314704879044,"pics":["//img.alicdn.com/bao/uploaded/i2/1915006069515809138/TB2kMsvumJjpuFjy0FdXXXmoFXa_!!0-rate.jpg","//img.alicdn.com/bao/uploaded/i2/1915006069571152533/TB2_dHGubplpuFjSspiXXcdfFXa_!!0-rate.jpg"],"picsSmall":"","position":"","rateContent":"没去鉴定，也不需要鉴定，高仿细节不可能做的那么好，618优惠力度很大，发货也快，五星评价是必须的，另外祝商家生意兴隆。","rateDate":"2017-06-21 18:04:18","reply":"","sellerId":1669237499,"serviceRateContent":"","structuredRateList":[],"tamllSweetLevel":4,"tmallSweetPic":"tmall-grade-t4-18.png","tradeEndTime":1498039188000,"tradeId":"","useful":true,"userIdEncryption":"","userInfo":"","userVipLevel":0,"userVipPic":""},{"aliMallSeller":false,"anony":true,"appendComment":"","attributes":"","attributesMap":"","aucNumId":"","auctionPicUrl":"","auctionPrice":"","auctionSku":"颜色分类:深蓝色F0216","auctionTitle":"","buyCount":0,"carServiceLocation":"","cmsSource":"天猫","displayRatePic":"","displayRateSum":0,"displayUserLink":"","displayUserNick":"不***3","displayUserNumId":"","displayUserRateLink":"","dsr":0.0,"fromMall":true,"fromMemory":0,"gmtCreateTime":1498014461000,"id":314779073427,"pics":["//img.alicdn.com/bao/uploaded/i1/1323106069361221688/TB2gSCeyiRnpuFjSZFCXXX2DXXa_!!0-rate.jpg","//img.alicdn.com/bao/uploaded/i4/1323106069368931660/TB2ygyXydFopuFjSZFHXXbSlXXa_!!0-rate.jpg"],"picsSmall":"","position":"","rateContent":"很快很帅，鉴定为真，","rateDate":"2017-06-21 11:07:41","reply":"","sellerId":1669237499,"serviceRateContent":"","structuredRateList":[],"tamllSweetLevel":0,"tmallSweetPic":"","tradeEndTime":1498014373000,"tradeId":"","useful":true,"userIdEncryption":"","userInfo":"","userVipLevel":0,"userVipPic":""},{"aliMallSeller":false,"anony":true,"appendComment":"","attributes":"","attributesMap":"","aucNumId":"","auctionPicUrl":"","auctionPrice":"","auctionSku":"颜色分类:新款黑色","auctionTitle":"","buyCount":0,"carServiceLocation":"","cmsSource":"天猫","displayRatePic":"","displayRateSum":0,"displayUserLink":"","displayUserNick":"a***8","displayUserNumId":"","displayUserRateLink":"","dsr":0.0,"fromMall":true,"fromMemory":0,"gmtCreateTime":1497837921000,"id":314508222111,"pics":"","picsSmall":"","position":"","rateContent":"东西感觉很不错应该是正是吧","rateDate":"2017-06-19 10:05:21","reply":"","sellerId":1669237499,"serviceRateContent":"","structuredRateList":[],"tamllSweetLevel":4,"tmallSweetPic":"tmall-grade-t4-18.png","tradeEndTime":1497837900000,"tradeId":"","useful":true,"userIdEncryption":"","userInfo":"","userVipLevel":0,"userVipPic":""},{"aliMallSeller":false,"anony":true,"appendComment":"","attributes":"","attributesMap":"","aucNumId":"","auctionPicUrl":"","auctionPrice":"","auctionSku":"颜色分类:深蓝色F0216","auctionTitle":"","buyCount":0,"carServiceLocation":"","cmsSource":"天猫","displayRatePic":"","displayRateSum":0,"displayUserLink":"","displayUserNick":"摇***泡","displayUserNumId":"","displayUserRateLink":"","dsr":0.0,"fromMall":true,"fromMemory":0,"gmtCreateTime":1496992358000,"id":313452932935,"pics":"","picsSmall":"","position":"","rateContent":"东西是正品，时间长，买的都忘了评价了","rateDate":"2017-06-09 15:12:38","reply":"","sellerId":1669237499,"serviceRateContent":"","structuredRateList":[],"tamllSweetLevel":1,"tmallSweetPic":"tmall-grade-t1-18.png","tradeEndTime":1496713999000,"tradeId":"","useful":true,"userIdEncryption":"","userInfo":"","userVipLevel":0,"userVipPic":""},{"aliMallSeller":false,"anony":true,"appendComment":"","attributes":"","attributesMap":"","aucNumId":"","auctionPicUrl":"","auctionPrice":"","auctionSku":"颜色分类:深蓝色F0216","auctionTitle":"","buyCount":0,"carServiceLocation":"","cmsSource":"天猫","displayRatePic":"","displayRateSum":0,"displayUserLink":"","displayUserNick":"z***6","displayUserNumId":"","displayUserRateLink":"","dsr":0.0,"fromMall":true,"fromMemory":0,"gmtCreateTime":1496375410000,"id":312548856806,"pics":"","picsSmall":"","position":"","rateContent":"服务态度真好，东西真不错 ，质地也不错，非常符合我的气质。这个价值了！","rateDate":"2017-06-02 11:50:10","reply":"感谢亲的好评，授人玫瑰手有余香，您的好评是对我们最大的支持与鼓励，也将是我们不断前进的动力！ 谢谢您的光顾，欢迎您再次光临 mua。~","sellerId":1669237499,"serviceRateContent":"","structuredRateList":[],"tamllSweetLevel":2,"tmallSweetPic":"tmall-grade-t2-18.png","tradeEndTime":1496375304000,"tradeId":"","useful":true,"userIdEncryption":"","userInfo":"","userVipLevel":0,"userVipPic":""},{"aliMallSeller":false,"anony":true,"appendComment":"","attributes":"","attributesMap":"","aucNumId":"","auctionPicUrl":"","auctionPrice":"","auctionSku":"颜色分类:黑色","auctionTitle":"","buyCount":0,"carServiceLocation":"","cmsSource":"天猫","displayRatePic":"","displayRateSum":0,"displayUserLink":"","displayUserNick":"t***0","displayUserNumId":"","displayUserRateLink":"","dsr":0.0,"fromMall":true,"fromMemory":0,"gmtCreateTime":1496063346000,"id":312248350944,"pics":"","picsSmall":"","position":"","rateContent":"超级好","rateDate":"2017-05-29 21:09:06","reply":"感谢亲的好评，授人玫瑰手有余香，您的好评是对我们最大的支持与鼓励，也将是我们不断前进的动力！ 谢谢您的光顾，欢迎您再次光临 mua。~","sellerId":1669237499,"serviceRateContent":"","structuredRateList":[],"tamllSweetLevel":2,"tmallSweetPic":"tmall-grade-t2-18.png","tradeEndTime":1495722861000,"tradeId":"","useful":true,"userIdEncryption":"","userInfo":"","userVipLevel":0,"userVipPic":""},{"aliMallSeller":false,"anony":false,"appendComment":"","attributes":"","attributesMap":"","aucNumId":"","auctionPicUrl":"","auctionPrice":"","auctionSku":"颜色分类:黑色","auctionTitle":"","buyCount":0,"carServiceLocation":"","cmsSource":"天猫","displayRatePic":"","displayRateSum":0,"displayUserLink":"","displayUserNick":"a***6","displayUserNumId":"","displayUserRateLink":"","dsr":0.0,"fromMall":true,"fromMemory":0,"gmtCreateTime":1494600635000,"id":310517849716,"pics":["//img.alicdn.com/bao/uploaded/i4/1732006038210547020/TB2hxJvpmBjpuFjSsplXXa5MVXa_!!0-rate.jpg","//img.alicdn.com/bao/uploaded/i3/1732006038365756729/TB2sss6r.hnpuFjSZFEXXX0PFXa_!!0-rate.jpg","//img.alicdn.com/bao/uploaded/i1/1732006038425311550/TB2G5VqphdkpuFjy0FbXXaNnpXa_!!0-rate.jpg"],"picsSmall":"","position":"","rateContent":"感觉不错 话不多说 上图","rateDate":"2017-05-12 22:50:35","reply":"感谢亲的好评，授人玫瑰手有余香，您的好评是对我们最大的支持与鼓励，也将是我们不断前进的动力！ 谢谢您的光顾，欢迎您再次光临 mua。~","sellerId":1669237499,"serviceRateContent":"","structuredRateList":[],"tamllSweetLevel":2,"tmallSweetPic":"tmall-grade-t2-18.png","tradeEndTime":1494600485000,"tradeId":"","useful":true,"userIdEncryption":"","userInfo":"","userVipLevel":0,"userVipPic":""},{"aliMallSeller":false,"anony":true,"appendComment":"","attributes":"","attributesMap":"","aucNumId":"","auctionPicUrl":"","auctionPrice":"","auctionSku":"颜色分类:黑色","auctionTitle":"","buyCount":0,"carServiceLocation":"","cmsSource":"天猫","displayRatePic":"","displayRateSum":0,"displayUserLink":"","displayUserNick":"l***5","displayUserNumId":"","displayUserRateLink":"","dsr":0.0,"fromMall":true,"fromMemory":0,"gmtCreateTime":1490438888000,"id":305131521716,"pics":["//img.alicdn.com/bao/uploaded/i3/1372506000790621505/TB2ZfDskUlnpuFjSZFjXXXTaVXa_!!0-rate.jpg"],"picsSmall":"","position":"","rateContent":"没验真假看起来不错，图片加了滤镜","rateDate":"2017-03-25 18:48:08","reply":"","sellerId":1669237499,"serviceRateContent":"","structuredRateList":[],"tamllSweetLevel":0,"tmallSweetPic":"","tradeEndTime":1490438807000,"tradeId":"","useful":true,"userIdEncryption":"","userInfo":"","userVipLevel":0,"userVipPic":""},{"aliMallSeller":false,"anony":true,"appendComment":"","attributes":"","attributesMap":"","aucNumId":"","auctionPicUrl":"","auctionPrice":"","auctionSku":"颜色分类:黑色","auctionTitle":"","buyCount":0,"carServiceLocation":"","cmsSource":"天猫","displayRatePic":"","displayRateSum":0,"displayUserLink":"","displayUserNick":"阳***b","displayUserNumId":"","displayUserRateLink":"","dsr":0.0,"fromMall":true,"fromMemory":0,"gmtCreateTime":1487996927000,"id":301953036429,"pics":["//img.alicdn.com/bao/uploaded/i3/1256505015132289598/TB28rexfrFkpuFjy1XcXXclapXa_!!0-rate.jpg","//img.alicdn.com/bao/uploaded/i1/1256505015132307506/TB2afCgbetTMeFjSZFOXXaTiVXa_!!0-rate.jpg"],"picsSmall":"","position":"","rateContent":"第一次网上买此类东西，和去实体店买过的一样，质感、外观光泽。","rateDate":"2017-02-25 12:28:47","reply":"","sellerId":1669237499,"serviceRateContent":"","structuredRateList":[],"tamllSweetLevel":0,"tmallSweetPic":"","tradeEndTime":1487996631000,"tradeId":"","useful":true,"userIdEncryption":"","userInfo":"","userVipLevel":0,"userVipPic":""},{"aliMallSeller":false,"anony":true,"appendComment":"","attributes":"","attributesMap":"","aucNumId":"","auctionPicUrl":"","auctionPrice":"","auctionSku":"颜色分类:黑色","auctionTitle":"","buyCount":0,"carServiceLocation":"","cmsSource":"天猫","displayRatePic":"","displayRateSum":0,"displayUserLink":"","displayUserNick":"j***5","displayUserNumId":"","displayUserRateLink":"","dsr":0.0,"fromMall":true,"fromMemory":0,"gmtCreateTime":1487496090000,"id":301545960702,"pics":"","picsSmall":"","position":"","rateContent":"就这样","rateDate":"2017-02-19 17:21:30","reply":"","sellerId":1669237499,"serviceRateContent":"","structuredRateList":[],"tamllSweetLevel":0,"tmallSweetPic":"","tradeEndTime":1486799341000,"tradeId":"","useful":true,"userIdEncryption":"","userInfo":"","userVipLevel":0,"userVipPic":""},{"aliMallSeller":false,"anony":true,"appendComment":"","attributes":"","attributesMap":"","aucNumId":"","auctionPicUrl":"","auctionPrice":"","auctionSku":"颜色分类:黑色","auctionTitle":"","buyCount":0,"carServiceLocation":"","cmsSource":"天猫","displayRatePic":"","displayRateSum":0,"displayUserLink":"","displayUserNick":"d***x","displayUserNumId":"","displayUserRateLink":"","dsr":0.0,"fromMall":true,"fromMemory":0,"gmtCreateTime":1487413494000,"id":301739558685,"pics":"","picsSmall":"","position":"","rateContent":"质量不错","rateDate":"2017-02-18 18:24:54","reply":"","sellerId":1669237499,"serviceRateContent":"","structuredRateList":[],"tamllSweetLevel":4,"tmallSweetPic":"tmall-grade-t4-18.png","tradeEndTime":1486626544000,"tradeId":"","useful":true,"userIdEncryption":"","userInfo":"","userVipLevel":0,"userVipPic":""},{"aliMallSeller":false,"anony":true,"appendComment":"","attributes":"","attributesMap":"","aucNumId":"","auctionPicUrl":"","auctionPrice":"","auctionSku":"颜色分类:深蓝色","auctionTitle":"","buyCount":0,"carServiceLocation":"","cmsSource":"天猫","displayRatePic":"","displayRateSum":0,"displayUserLink":"","displayUserNick":"哲***薇","displayUserNumId":"","displayUserRateLink":"","dsr":0.0,"fromMall":true,"fromMemory":0,"gmtCreateTime":1487153131000,"id":301397924658,"pics":["//img.alicdn.com/bao/uploaded/i3/1264605007659779206/TB2gBtAfipnpuFjSZFkXXc4ZpXa_!!0-rate.jpg","//img.alicdn.com/bao/uploaded/i3/1264605007659790162/TB2Bpl4el8lpuFjSspaXXXJKpXa_!!0-rate.jpg","//img.alicdn.com/bao/uploaded/i3/1264605007659792603/TB2ITAVe7qvpuFjSZFhXXaOgXXa_!!0-rate.jpg"],"picsSmall":"","position":"","rateContent":"包包已收到&hellip;美美哒&hellip;手感特别好&hellip;","rateDate":"2017-02-15 18:05:31","reply":"","sellerId":1669237499,"serviceRateContent":"","structuredRateList":[],"tamllSweetLevel":0,"tmallSweetPic":"","tradeEndTime":1487153032000,"tradeId":"","useful":true,"userIdEncryption":"","userInfo":"","userVipLevel":0,"userVipPic":""},{"aliMallSeller":false,"anony":true,"appendComment":"","attributes":"","attributesMap":"","aucNumId":"","auctionPicUrl":"","auctionPrice":"","auctionSku":"颜色分类:黑色","auctionTitle":"","buyCount":0,"carServiceLocation":"","cmsSource":"天猫","displayRatePic":"","displayRateSum":0,"displayUserLink":"","displayUserNick":"t***6","displayUserNumId":"","displayUserRateLink":"","dsr":0.0,"fromMall":true,"fromMemory":0,"gmtCreateTime":1485170073000,"id":299849017296,"pics":["//img.alicdn.com/bao/uploaded/i4/1748705001139276138/TB2yf7wdOpnpuFjSZFIXXXh2VXa_!!0-rate.jpg","//img.alicdn.com/bao/uploaded/i3/1748705001139283122/TB2Vr3EdHxmpuFjSZJiXXXauVXa_!!0-rate.jpg","//img.alicdn.com/bao/uploaded/i1/1748705001139287103/TB2YtMIc90jpuFjy0FlXXc0bpXa_!!0-rate.jpg"],"picsSmall":"","position":"","rateContent":"还不错，可是，好像装不了多少！","rateDate":"2017-01-23 19:14:33","reply":"","sellerId":1669237499,"serviceRateContent":"","structuredRateList":[],"tamllSweetLevel":0,"tmallSweetPic":"","tradeEndTime":1485170000000,"tradeId":"","useful":true,"userIdEncryption":"","userInfo":"","userVipLevel":0,"userVipPic":""}],"searchinfo":"","tags":"","itemId":"523282694163","sellerId":"1669237499","url":"https://rate.tmall.com/list_detail_rate.htm?itemId=523282694163&sellerId=1669237499"}